{
  "name": "testapp",
  "$schema": "../../node_modules/nx/schemas/project-schema.json",
  "sourceRoot": "apps/testapp/src",
  "projectType": "application",
  "targets": {
    "build": {
      "executor": "@nx/webpack:webpack",
      "outputs": ["{options.outputPath}"],
      "defaultConfiguration": "production",
      "options": {
        "compiler": "babel",
        "outputPath": "dist/apps/testapp",
        "index": "apps/testapp/src/index.html",
        "baseHref": "/",
        "main": "apps/testapp/src/main.tsx",
        "tsConfig": "apps/testapp/tsconfig.app.json",
        "assets": ["apps/testapp/src/favicon.ico", "apps/testapp/src/assets"],
        "styles": [],
        "scripts": [],
        "isolatedConfig": true,
        "webpackConfig": "apps/testapp/webpack.config.js"
      },
      "configurations": {
        "development": {
          "extractLicenses": false,
          "optimization": false,
          "sourceMap": true,
          "vendorChunk": true
        },
        "production": {
          "fileReplacements": [
            {
              "replace": "apps/testapp/src/environments/environment.ts",
              "with": "apps/testapp/src/environments/environment.prod.ts"
            }
          ],
          "optimization": true,
          "outputHashing": "all",
          "sourceMap": false,
          "namedChunks": false,
          "extractLicenses": true,
          "vendorChunk": false
        }
      }
    },
    "serve": {
      "executor": "@nx/webpack:dev-server",
      "defaultConfiguration": "development",
      "options": {
        "buildTarget": "testapp:build",
        "hmr": true
      },
      "configurations": {
        "development": {
          "buildTarget": "testapp:build:development"
        },
        "production": {
          "buildTarget": "testapp:build:production",
          "hmr": false
        }
      }
    },
    "lint": {
      "executor": "@nx/linter:eslint",
      "outputs": ["{options.outputFile}"],
      "options": {
        "lintFilePatterns": ["apps/testapp/**/*.{ts,tsx,js,jsx}"]
      }
    },
    "serve-static": {
      "executor": "@nx/web:file-server",
      "options": {
        "buildTarget": "testapp:build"
      }
    },
    "test": {
      "executor": "@nx/jest:jest",
      "outputs": ["{workspaceRoot}/coverage/{projectRoot}"],
      "options": {
        "jestConfig": "apps/testapp/jest.config.ts",
        "passWithNoTests": true
      },
      "configurations": {
        "ci": {
          "ci": true,
          "codeCoverage": true
        }
      }
    }
  },
  "tags": []
}
